Week 11 · Novelty Functions and Tempograms
…
        compmus_summarise, pitches,
        method = "mean", na.rm = TRUE
      ),
    timbre =
      map(
        segments,
        compmus_summarise, timbre,
        method = "mean", na.rm = TRUE
      )
  ) |>
  mutate_at(vars(pitches, timbre), map, bind_rows) |>
  unnest(cols = c(pitches, timbre))
indie_deltas

## # A tibble: 60 × 101
##    playlist…¹ playl…² playl…³ playl…⁴ playl…⁵ dance…⁶ energy   key loudn…⁷  mode
##    <chr>      <chr>   <chr>   <chr>   <chr>     <dbl>  <dbl> <int>   <dbl> <int>
##  1 37i9dQZF1… Indie … https:… Spotify spotify   0.595  0.891     0   -3.93     1
##  2 37i9dQZF1… Indie … https:… Spotify spotify   0.601  0.37     10  -10.5      1
##  3 37i9dQZF1… Indie … https:… Spotify spotify   0.747  0.655     6   -6.90     1
##  4 37i9dQZF1… Indie … https:… Spotify spotify   0.687  0.768     9   -5.90     1
##  5 37i9dQZF1… Indie … https:… Spotify spotify   0.516  0.322     9  -11.8      1
##  6 37i9dQZF1… Indie … https:… Spotify spotify   0.533  0.74      2   -5.77     1
##  7 37i9dQZF1… Indie … https:… Spotify spotify   0.806  0.507    11   -6.43     1
##  8 37i9dQZF1… Indie … https:… Spotify spotify   0.548  0.456     9   -5.98     1
##  9 37i9dQZF1… Indie … https:… Spotify spotify   0.656  0.838     5   -8.41     1
## 10 37i9dQZF1… Indie … https:… Spotify spotify   0.392  0.541     1   -8.68     1
## # … with 50 more rows, 91 more variables: speechiness <dbl>,
## #   acousticness <dbl>, instrumentalness <dbl>, liveness <dbl>, valence <dbl>,
## #   tempo <dbl>, track.id <chr>, analysis_url <chr>, time_signature <int>,
## #   added_at <chr>, is_local <lgl>, primary_color <lgl>, added_by.href <chr>,
## #   added_by.id <chr>, added_by.type <chr>, added_by.uri <chr>,
## #   added_by.external_urls.spotify <chr>, track.artists <list>,
## #   track.available_markets <list>, track.disc_number <int>, …
